%YAML 1.1
%TAG !u! tag:unity3d.com,2011:
--- !u!29 &1
OcclusionCullingSettings:
  m_ObjectHideFlags: 0
  serializedVersion: 2
  m_OcclusionBakeSettings:
    smallestOccluder: 5
    smallestHole: 0.25
    backfaceThreshold: 100
  m_SceneGUID: 00000000000000000000000000000000
  m_OcclusionCullingData: {fileID: 0}
--- !u!104 &2
RenderSettings:
  m_ObjectHideFlags: 0
  serializedVersion: 8
  m_Fog: 1
  m_FogColor: {r: 1, g: 1, b: 1, a: 1}
  m_FogMode: 3
  m_FogDensity: 0.05
  m_LinearFogStart: 0
  m_LinearFogEnd: 300
  m_AmbientSkyColor: {r: 0.212, g: 0.227, b: 0.259, a: 1}
  m_AmbientEquatorColor: {r: 0.114, g: 0.125, b: 0.133, a: 1}
  m_AmbientGroundColor: {r: 0.047, g: 0.043, b: 0.035, a: 1}
  m_AmbientIntensity: 1
  m_AmbientMode: 0
  m_SubtractiveShadowColor: {r: 0.42, g: 0.478, b: 0.627, a: 1}
  m_SkyboxMaterial: {fileID: 10304, guid: 0000000000000000f000000000000000, type: 0}
  m_HaloStrength: 0.5
  m_FlareStrength: 1
  m_FlareFadeSpeed: 3
  m_HaloTexture: {fileID: 0}
  m_SpotCookie: {fileID: 10001, guid: 0000000000000000e000000000000000, type: 0}
  m_DefaultReflectionMode: 0
  m_DefaultReflectionResolution: 128
  m_ReflectionBounces: 1
  m_ReflectionIntensity: 1
  m_CustomReflection: {fileID: 0}
  m_Sun: {fileID: 0}
  m_IndirectSpecularColor: {r: 0.44692528, g: 0.49678677, b: 0.57508475, a: 1}
--- !u!157 &3
LightmapSettings:
  m_ObjectHideFlags: 0
  serializedVersion: 11
  m_GIWorkflowMode: 1
  m_GISettings:
    serializedVersion: 2
    m_BounceScale: 1
    m_IndirectOutputScale: 1
    m_AlbedoBoost: 1
    m_TemporalCoherenceThreshold: 1
    m_EnvironmentLightingMode: 0
    m_EnableBakedLightmaps: 1
    m_EnableRealtimeLightmaps: 1
  m_LightmapEditorSettings:
    serializedVersion: 9
    m_Resolution: 2
    m_BakeResolution: 40
    m_TextureWidth: 1024
    m_TextureHeight: 1024
    m_AO: 0
    m_AOMaxDistance: 1
    m_CompAOExponent: 0
    m_CompAOExponentDirect: 0
    m_Padding: 2
    m_LightmapParameters: {fileID: 0}
    m_LightmapsBakeMode: 1
    m_TextureCompression: 1
    m_FinalGather: 0
    m_FinalGatherFiltering: 1
    m_FinalGatherRayCount: 1024
    m_ReflectionCompression: 2
    m_MixedBakeMode: 1
    m_BakeBackend: 0
    m_PVRSampling: 1
    m_PVRDirectSampleCount: 32
    m_PVRSampleCount: 500
    m_PVRBounces: 2
    m_PVRFilterTypeDirect: 0
    m_PVRFilterTypeIndirect: 0
    m_PVRFilterTypeAO: 0
    m_PVRFilteringMode: 0
    m_PVRCulling: 1
    m_PVRFilteringGaussRadiusDirect: 1
    m_PVRFilteringGaussRadiusIndirect: 5
    m_PVRFilteringGaussRadiusAO: 2
    m_PVRFilteringAtrousPositionSigmaDirect: 0.5
    m_PVRFilteringAtrousPositionSigmaIndirect: 2
    m_PVRFilteringAtrousPositionSigmaAO: 1
    m_ShowResolutionOverlay: 1
  m_LightingDataAsset: {fileID: 112000001, guid: 575e9ffdebd212f41b453536af3652e6,
    type: 2}
  m_UseShadowmask: 0
--- !u!196 &4
NavMeshSettings:
  serializedVersion: 2
  m_ObjectHideFlags: 0
  m_BuildSettings:
    serializedVersion: 2
    agentTypeID: 0
    agentRadius: 0.5
    agentHeight: 2
    agentSlope: 45
    agentClimb: 0.4
    ledgeDropHeight: 0
    maxJumpAcrossDistance: 0
    minRegionArea: 2
    manualCellSize: 0
    cellSize: 0.16666667
    manualTileSize: 0
    tileSize: 256
    accuratePlacement: 0
    debug:
      m_Flags: 0
  m_NavMeshData: {fileID: 0}
--- !u!1001 &74650498
Prefab:
  m_ObjectHideFlags: 0
  serializedVersion: 2
  m_Modification:
    m_TransformParent: {fileID: 1694668813}
    m_Modifications:
    - target: {fileID: 408732, guid: 57516b916e7b90546a192c034bfd0b2a, type: 2}
      propertyPath: m_LocalPosition.x
      value: 1.56
      objectReference: {fileID: 0}
    - target: {fileID: 408732, guid: 57516b916e7b90546a192c034bfd0b2a, type: 2}
      propertyPath: m_LocalPosition.y
      value: 0
      objectReference: {fileID: 0}
    - target: {fileID: 408732, guid: 57516b916e7b90546a192c034bfd0b2a, type: 2}
      propertyPath: m_LocalPosition.z
      value: 0
      objectReference: {fileID: 0}
    - target: {fileID: 408732, guid: 57516b916e7b90546a192c034bfd0b2a, type: 2}
      propertyPath: m_LocalRotation.x
      value: -0.7071068
      objectReference: {fileID: 0}
    - target: {fileID: 408732, guid: 57516b916e7b90546a192c034bfd0b2a, type: 2}
      propertyPath: m_LocalRotation.y
      value: 0
      objectReference: {fileID: 0}
    - target: {fileID: 408732, guid: 57516b916e7b90546a192c034bfd0b2a, type: 2}
      propertyPath: m_LocalRotation.z
      value: -0
      objectReference: {fileID: 0}
    - target: {fileID: 408732, guid: 57516b916e7b90546a192c034bfd0b2a, type: 2}
      propertyPath: m_LocalRotation.w
      value: 0.7071067
      objectReference: {fileID: 0}
    - target: {fileID: 408732, guid: 57516b916e7b90546a192c034bfd0b2a, type: 2}
      propertyPath: m_RootOrder
      value: 2
      objectReference: {fileID: 0}
    m_RemovedComponents: []
  m_ParentPrefab: {fileID: 100100000, guid: 57516b916e7b90546a192c034bfd0b2a, type: 2}
  m_IsPrefabParent: 0
--- !u!4 &74650499 stripped
Transform:
  m_PrefabParentObject: {fileID: 408732, guid: 57516b916e7b90546a192c034bfd0b2a, type: 2}
  m_PrefabInternal: {fileID: 74650498}
--- !u!1001 &360132049
Prefab:
  m_ObjectHideFlags: 0
  serializedVersion: 2
  m_Modification:
    m_TransformParent: {fileID: 1694668813}
    m_Modifications:
    - target: {fileID: 435322, guid: ceb921a3dd8226942bccb4f5cd485e9a, type: 2}
      propertyPath: m_LocalPosition.x
      value: -0.06
      objectReference: {fileID: 0}
    - target: {fileID: 435322, guid: ceb921a3dd8226942bccb4f5cd485e9a, type: 2}
      propertyPath: m_LocalPosition.y
      value: 0.23
      objectReference: {fileID: 0}
    - target: {fileID: 435322, guid: ceb921a3dd8226942bccb4f5cd485e9a, type: 2}
      propertyPath: m_LocalPosition.z
      value: -0
      objectReference: {fileID: 0}
    - target: {fileID: 435322, guid: ceb921a3dd8226942bccb4f5cd485e9a, type: 2}
      propertyPath: m_LocalRotation.x
      value: -0.7071068
      objectReference: {fileID: 0}
    - target: {fileID: 435322, guid: ceb921a3dd8226942bccb4f5cd485e9a, type: 2}
      propertyPath: m_LocalRotation.y
      value: 0
      objectReference: {fileID: 0}
    - target: {fileID: 435322, guid: ceb921a3dd8226942bccb4f5cd485e9a, type: 2}
      propertyPath: m_LocalRotation.z
      value: -0
      objectReference: {fileID: 0}
    - target: {fileID: 435322, guid: ceb921a3dd8226942bccb4f5cd485e9a, type: 2}
      propertyPath: m_LocalRotation.w
      value: 0.7071067
      objectReference: {fileID: 0}
    - target: {fileID: 435322, guid: ceb921a3dd8226942bccb4f5cd485e9a, type: 2}
      propertyPath: m_RootOrder
      value: 5
      objectReference: {fileID: 0}
    m_RemovedComponents: []
  m_ParentPrefab: {fileID: 100100000, guid: ceb921a3dd8226942bccb4f5cd485e9a, type: 2}
  m_IsPrefabParent: 0
--- !u!4 &360132050 stripped
Transform:
  m_PrefabParentObject: {fileID: 435322, guid: ceb921a3dd8226942bccb4f5cd485e9a, type: 2}
  m_PrefabInternal: {fileID: 360132049}
--- !u!1 &390803733
GameObject:
  m_ObjectHideFlags: 0
  m_PrefabParentObject: {fileID: 0}
  m_PrefabInternal: {fileID: 0}
  serializedVersion: 5
  m_Component:
  - component: {fileID: 390803735}
  - component: {fileID: 390803734}
  m_Layer: 0
  m_Name: Directional Light
  m_TagString: Untagged
  m_Icon: {fileID: 0}
  m_NavMeshLayer: 0
  m_StaticEditorFlags: 0
  m_IsActive: 1
--- !u!108 &390803734
Light:
  m_ObjectHideFlags: 0
  m_PrefabParentObject: {fileID: 0}
  m_PrefabInternal: {fileID: 0}
  m_GameObject: {fileID: 390803733}
  m_Enabled: 1
  serializedVersion: 8
  m_Type: 1
  m_Color: {r: 1, g: 0.95686275, b: 0.8392157, a: 1}
  m_Intensity: 1
  m_Range: 10
  m_SpotAngle: 30
  m_CookieSize: 10
  m_Shadows:
    m_Type: 2
    m_Resolution: -1
    m_CustomResolution: -1
    m_Strength: 1
    m_Bias: 0.05
    m_NormalBias: 0.4
    m_NearPlane: 0.2
  m_Cookie: {fileID: 0}
  m_DrawHalo: 0
  m_Flare: {fileID: 0}
  m_RenderMode: 0
  m_CullingMask:
    serializedVersion: 2
    m_Bits: 4294967295
  m_Lightmapping: 4
  m_AreaSize: {x: 1, y: 1}
  m_BounceIntensity: 1
  m_ColorTemperature: 6570
  m_UseColorTemperature: 0
  m_ShadowRadius: 0
  m_ShadowAngle: 0
--- !u!4 &390803735
Transform:
  m_ObjectHideFlags: 0
  m_PrefabParentObject: {fileID: 0}
  m_PrefabInternal: {fileID: 0}
  m_GameObject: {fileID: 390803733}
  m_LocalRotation: {x: 0.40821794, y: -0.23456973, z: 0.109381676, w: 0.87542605}
  m_LocalPosition: {x: 0, y: 5.71, z: 0}
  m_LocalScale: {x: 1, y: 1, z: 1}
  m_Children: []
  m_Father: {fileID: 0}
  m_RootOrder: 4
  m_LocalEulerAnglesHint: {x: 0, y: 0, z: 0}
--- !u!1001 &412807335
Prefab:
  m_ObjectHideFlags: 0
  serializedVersion: 2
  m_Modification:
    m_TransformParent: {fileID: 1694668813}
    m_Modifications:
    - target: {fileID: 4575106393525844, guid: fdd7447de697da6448e70dde56ef5639, type: 2}
      propertyPath: m_LocalPosition.x
      value: -0.06
      objectReference: {fileID: 0}
    - target: {fileID: 4575106393525844, guid: fdd7447de697da6448e70dde56ef5639, type: 2}
      propertyPath: m_LocalPosition.y
      value: 0.23
      objectReference: {fileID: 0}
    - target: {fileID: 4575106393525844, guid: fdd7447de697da6448e70dde56ef5639, type: 2}
      propertyPath: m_LocalPosition.z
      value: 0
      objectReference: {fileID: 0}
    - target: {fileID: 4575106393525844, guid: fdd7447de697da6448e70dde56ef5639, type: 2}
      propertyPath: m_LocalRotation.x
      value: 0.00000011518241
      objectReference: {fileID: 0}
    - target: {fileID: 4575106393525844, guid: fdd7447de697da6448e70dde56ef5639, type: 2}
      propertyPath: m_LocalRotation.y
      value: 0.70722896
      objectReference: {fileID: 0}
    - target: {fileID: 4575106393525844, guid: fdd7447de697da6448e70dde56ef5639, type: 2}
      propertyPath: m_LocalRotation.z
      value: 0.7069846
      objectReference: {fileID: 0}
    - target: {fileID: 4575106393525844, guid: fdd7447de697da6448e70dde56ef5639, type: 2}
      propertyPath: m_LocalRotation.w
      value: -0.00000011522223
      objectReference: {fileID: 0}
    - target: {fileID: 4575106393525844, guid: fdd7447de697da6448e70dde56ef5639, type: 2}
      propertyPath: m_RootOrder
      value: 14
      objectReference: {fileID: 0}
    m_RemovedComponents: []
  m_ParentPrefab: {fileID: 100100000, guid: fdd7447de697da6448e70dde56ef5639, type: 2}
  m_IsPrefabParent: 0
--- !u!4 &412807336 stripped
Transform:
  m_PrefabParentObject: {fileID: 4575106393525844, guid: fdd7447de697da6448e70dde56ef5639,
    type: 2}
  m_PrefabInternal: {fileID: 412807335}
--- !u!1001 &626016540
Prefab:
  m_ObjectHideFlags: 0
  serializedVersion: 2
  m_Modification:
    m_TransformParent: {fileID: 1694668813}
    m_Modifications:
    - target: {fileID: 499570, guid: 73b857a0defa1e84b9d07c916d8c287b, type: 2}
      propertyPath: m_LocalPosition.x
      value: -1.591
      objectReference: {fileID: 0}
    - target: {fileID: 499570, guid: 73b857a0defa1e84b9d07c916d8c287b, type: 2}
      propertyPath: m_LocalPosition.y
      value: 0
      objectReference: {fileID: 0}
    - target: {fileID: 499570, guid: 73b857a0defa1e84b9d07c916d8c287b, type: 2}
      propertyPath: m_LocalPosition.z
      value: 0
      objectReference: {fileID: 0}
    - target: {fileID: 499570, guid: 73b857a0defa1e84b9d07c916d8c287b, type: 2}
      propertyPath: m_LocalRotation.x
      value: -0.7071068
      objectReference: {fileID: 0}
    - target: {fileID: 499570, guid: 73b857a0defa1e84b9d07c916d8c287b, type: 2}
      propertyPath: m_LocalRotation.y
      value: 0
      objectReference: {fileID: 0}
    - target: {fileID: 499570, guid: 73b857a0defa1e84b9d07c916d8c287b, type: 2}
      propertyPath: m_LocalRotation.z
      value: -0
      objectReference: {fileID: 0}
    - target: {fileID: 499570, guid: 73b857a0defa1e84b9d07c916d8c287b, type: 2}
      propertyPath: m_LocalRotation.w
      value: 0.7071067
      objectReference: {fileID: 0}
    - target: {fileID: 499570, guid: 73b857a0defa1e84b9d07c916d8c287b, type: 2}
      propertyPath: m_RootOrder
      value: 3
      objectReference: {fileID: 0}
    m_RemovedComponents: []
  m_ParentPrefab: {fileID: 100100000, guid: 73b857a0defa1e84b9d07c916d8c287b, type: 2}
  m_IsPrefabParent: 0
--- !u!4 &626016541 stripped
Transform:
  m_PrefabParentObject: {fileID: 499570, guid: 73b857a0defa1e84b9d07c916d8c287b, type: 2}
  m_PrefabInternal: {fileID: 626016540}
--- !u!1001 &684109688
Prefab:
  m_ObjectHideFlags: 0
  serializedVersion: 2
  m_Modification:
    m_TransformParent: {fileID: 1694668813}
    m_Modifications:
    - target: {fileID: 449904, guid: de24c2b83a6bdfe4f8bde04dbd26c18f, type: 2}
      propertyPath: m_LocalPosition.x
      value: 0
      objectReference: {fileID: 0}
    - target: {fileID: 449904, guid: de24c2b83a6bdfe4f8bde04dbd26c18f, type: 2}
      propertyPath: m_LocalPosition.y
      value: 0
      objectReference: {fileID: 0}
    - target: {fileID: 449904, guid: de24c2b83a6bdfe4f8bde04dbd26c18f, type: 2}
      propertyPath: m_LocalPosition.z
      value: 0
      objectReference: {fileID: 0}
    - target: {fileID: 449904, guid: de24c2b83a6bdfe4f8bde04dbd26c18f, type: 2}
      propertyPath: m_LocalRotation.x
      value: -0.7071068
      objectReference: {fileID: 0}
    - target: {fileID: 449904, guid: de24c2b83a6bdfe4f8bde04dbd26c18f, type: 2}
      propertyPath: m_LocalRotation.y
      value: 0
      objectReference: {fileID: 0}
    - target: {fileID: 449904, guid: de24c2b83a6bdfe4f8bde04dbd26c18f, type: 2}
      propertyPath: m_LocalRotation.z
      value: -0
      objectReference: {fileID: 0}
    - target: {fileID: 449904, guid: de24c2b83a6bdfe4f8bde04dbd26c18f, type: 2}
      propertyPath: m_LocalRotation.w
      value: 0.7071067
      objectReference: {fileID: 0}
    - target: {fileID: 449904, guid: de24c2b83a6bdfe4f8bde04dbd26c18f, type: 2}
      propertyPath: m_RootOrder
      value: 1
      objectReference: {fileID: 0}
    m_RemovedComponents: []
  m_ParentPrefab: {fileID: 100100000, guid: de24c2b83a6bdfe4f8bde04dbd26c18f, type: 2}
  m_IsPrefabParent: 0
--- !u!4 &684109689 stripped
Transform:
  m_PrefabParentObject: {fileID: 449904, guid: de24c2b83a6bdfe4f8bde04dbd26c18f, type: 2}
  m_PrefabInternal: {fileID: 684109688}
--- !u!1001 &690590500
Prefab:
  m_ObjectHideFlags: 0
  serializedVersion: 2
  m_Modification:
    m_TransformParent: {fileID: 1694668813}
    m_Modifications:
    - target: {fileID: 486056, guid: 63faeb71197289c4aa49564bf348118e, type: 2}
      propertyPath: m_LocalPosition.x
      value: 1.24
      objectReference: {fileID: 0}
    - target: {fileID: 486056, guid: 63faeb71197289c4aa49564bf348118e, type: 2}
      propertyPath: m_LocalPosition.y
      value: 0
      objectReference: {fileID: 0}
    - target: {fileID: 486056, guid: 63faeb71197289c4aa49564bf348118e, type: 2}
      propertyPath: m_LocalPosition.z
      value: 5.8
      objectReference: {fileID: 0}
    - target: {fileID: 486056, guid: 63faeb71197289c4aa49564bf348118e, type: 2}
      propertyPath: m_LocalRotation.x
      value: -0.7071068
      objectReference: {fileID: 0}
    - target: {fileID: 486056, guid: 63faeb71197289c4aa49564bf348118e, type: 2}
      propertyPath: m_LocalRotation.y
      value: 0
      objectReference: {fileID: 0}
    - target: {fileID: 486056, guid: 63faeb71197289c4aa49564bf348118e, type: 2}
      propertyPath: m_LocalRotation.z
      value: -0
      objectReference: {fileID: 0}
    - target: {fileID: 486056, guid: 63faeb71197289c4aa49564bf348118e, type: 2}
      propertyPath: m_LocalRotation.w
      value: 0.7071067
      objectReference: {fileID: 0}
    - target: {fileID: 486056, guid: 63faeb71197289c4aa49564bf348118e, type: 2}
      propertyPath: m_RootOrder
      value: 7
      objectReference: {fileID: 0}
    m_RemovedComponents: []
  m_ParentPrefab: {fileID: 100100000, guid: 63faeb71197289c4aa49564bf348118e, type: 2}
  m_IsPrefabParent: 0
--- !u!4 &690590501 stripped
Transform:
  m_PrefabParentObject: {fileID: 486056, guid: 63faeb71197289c4aa49564bf348118e, type: 2}
  m_PrefabInternal: {fileID: 690590500}
--- !u!1001 &731993184
Prefab:
  m_ObjectHideFlags: 0
  serializedVersion: 2
  m_Modification:
    m_TransformParent: {fileID: 1694668813}
    m_Modifications:
    - target: {fileID: 410910, guid: 2e484bbbc43b43e4081262f200048c97, type: 2}
      propertyPath: m_LocalPosition.x
      value: 0
      objectReference: {fileID: 0}
    - target: {fileID: 410910, guid: 2e484bbbc43b43e4081262f200048c97, type: 2}
      propertyPath: m_LocalPosition.y
      value: 0
      objectReference: {fileID: 0}
    - target: {fileID: 410910, guid: 2e484bbbc43b43e4081262f200048c97, type: 2}
      propertyPath: m_LocalPosition.z
      value: -3.39
      objectReference: {fileID: 0}
    - target: {fileID: 410910, guid: 2e484bbbc43b43e4081262f200048c97, type: 2}
      propertyPath: m_LocalRotation.x
      value: -0.7071068
      objectReference: {fileID: 0}
    - target: {fileID: 410910, guid: 2e484bbbc43b43e4081262f200048c97, type: 2}
      propertyPath: m_LocalRotation.y
      value: 0
      objectReference: {fileID: 0}
    - target: {fileID: 410910, guid: 2e484bbbc43b43e4081262f200048c97, type: 2}
      propertyPath: m_LocalRotation.z
      value: -0
      objectReference: {fileID: 0}
    - target: {fileID: 410910, guid: 2e484bbbc43b43e4081262f200048c97, type: 2}
      propertyPath: m_LocalRotation.w
      value: 0.7071067
      objectReference: {fileID: 0}
    - target: {fileID: 410910, guid: 2e484bbbc43b43e4081262f200048c97, type: 2}
      propertyPath: m_RootOrder
      value: 6
      objectReference: {fileID: 0}
    m_RemovedComponents: []
  m_ParentPrefab: {fileID: 100100000, guid: 2e484bbbc43b43e4081262f200048c97, type: 2}
  m_IsPrefabParent: 0
--- !u!4 &731993185 stripped
Transform:
  m_PrefabParentObject: {fileID: 410910, guid: 2e484bbbc43b43e4081262f200048c97, type: 2}
  m_PrefabInternal: {fileID: 731993184}
--- !u!1001 &851761851
Prefab:
  m_ObjectHideFlags: 0
  serializedVersion: 2
  m_Modification:
    m_TransformParent: {fileID: 1694668813}
    m_Modifications:
    - target: {fileID: 469500, guid: f45571cbd40aea74cb9206a168799b7f, type: 2}
      propertyPath: m_LocalPosition.x
      value: 3.2
      objectReference: {fileID: 0}
    - target: {fileID: 469500, guid: f45571cbd40aea74cb9206a168799b7f, type: 2}
      propertyPath: m_LocalPosition.y
      value: 0
      objectReference: {fileID: 0}
    - target: {fileID: 469500, guid: f45571cbd40aea74cb9206a168799b7f, type: 2}
      propertyPath: m_LocalPosition.z
      value: 0
      objectReference: {fileID: 0}
    - target: {fileID: 469500, guid: f45571cbd40aea74cb9206a168799b7f, type: 2}
      propertyPath: m_LocalRotation.x
      value: -0.7071068
      objectReference: {fileID: 0}
    - target: {fileID: 469500, guid: f45571cbd40aea74cb9206a168799b7f, type: 2}
      propertyPath: m_LocalRotation.y
      value: 0
      objectReference: {fileID: 0}
    - target: {fileID: 469500, guid: f45571cbd40aea74cb9206a168799b7f, type: 2}
      propertyPath: m_LocalRotation.z
      value: 0
      objectReference: {fileID: 0}
    - target: {fileID: 469500, guid: f45571cbd40aea74cb9206a168799b7f, type: 2}
      propertyPath: m_LocalRotation.w
      value: 0.7071067
      objectReference: {fileID: 0}
    - target: {fileID: 469500, guid: f45571cbd40aea74cb9206a168799b7f, type: 2}
      propertyPath: m_RootOrder
      value: 13
      objectReference: {fileID: 0}
    - target: {fileID: 469500, guid: f45571cbd40aea74cb9206a168799b7f, type: 2}
      propertyPath: m_LocalScale.y
      value: 100
      objectReference: {fileID: 0}
    - target: {fileID: 469500, guid: f45571cbd40aea74cb9206a168799b7f, type: 2}
      propertyPath: m_LocalScale.z
      value: 100
      objectReference: {fileID: 0}
    - target: {fileID: 187700, guid: f45571cbd40aea74cb9206a168799b7f, type: 2}
      propertyPath: m_Name
      value: way_1 (4)
      objectReference: {fileID: 0}
    m_RemovedComponents: []
  m_ParentPrefab: {fileID: 100100000, guid: f45571cbd40aea74cb9206a168799b7f, type: 2}
  m_IsPrefabParent: 0
--- !u!4 &851761852 stripped
Transform:
  m_PrefabParentObject: {fileID: 469500, guid: f45571cbd40aea74cb9206a168799b7f, type: 2}
  m_PrefabInternal: {fileID: 851761851}
--- !u!1001 &895467901
Prefab:
  m_ObjectHideFlags: 0
  serializedVersion: 2
  m_Modification:
    m_TransformParent: {fileID: 1694668813}
    m_Modifications:
    - target: {fileID: 469500, guid: f45571cbd40aea74cb9206a168799b7f, type: 2}
      propertyPath: m_LocalPosition.x
      value: -3.2
      objectReference: {fileID: 0}
    - target: {fileID: 469500, guid: f45571cbd40aea74cb9206a168799b7f, type: 2}
      propertyPath: m_LocalPosition.y
      value: 0
      objectReference: {fileID: 0}
    - target: {fileID: 469500, guid: f45571cbd40aea74cb9206a168799b7f, type: 2}
      propertyPath: m_LocalPosition.z
      value: 0
      objectReference: {fileID: 0}
    - target: {fileID: 469500, guid: f45571cbd40aea74cb9206a168799b7f, type: 2}
      propertyPath: m_LocalRotation.x
      value: -0.7071068
      objectReference: {fileID: 0}
    - target: {fileID: 469500, guid: f45571cbd40aea74cb9206a168799b7f, type: 2}
      propertyPath: m_LocalRotation.y
      value: 0
      objectReference: {fileID: 0}
    - target: {fileID: 469500, guid: f45571cbd40aea74cb9206a168799b7f, type: 2}
      propertyPath: m_LocalRotation.z
      value: 0
      objectReference: {fileID: 0}
    - target: {fileID: 469500, guid: f45571cbd40aea74cb9206a168799b7f, type: 2}
      propertyPath: m_LocalRotation.w
      value: 0.7071067
      objectReference: {fileID: 0}
    - target: {fileID: 469500, guid: f45571cbd40aea74cb9206a168799b7f, type: 2}
      propertyPath: m_RootOrder
      value: 11
      objectReference: {fileID: 0}
    - target: {fileID: 469500, guid: f45571cbd40aea74cb9206a168799b7f, type: 2}
      propertyPath: m_LocalScale.y
      value: 100
      objectReference: {fileID: 0}
    - target: {fileID: 469500, guid: f45571cbd40aea74cb9206a168799b7f, type: 2}
      propertyPath: m_LocalScale.z
      value: 100
      objectReference: {fileID: 0}
    - target: {fileID: 187700, guid: f45571cbd40aea74cb9206a168799b7f, type: 2}
      propertyPath: m_Name
      value: way_1 (2)
      objectReference: {fileID: 0}
    m_RemovedComponents: []
  m_ParentPrefab: {fileID: 100100000, guid: f45571cbd40aea74cb9206a168799b7f, type: 2}
  m_IsPrefabParent: 0
--- !u!4 &895467902 stripped
Transform:
  m_PrefabParentObject: {fileID: 469500, guid: f45571cbd40aea74cb9206a168799b7f, type: 2}
  m_PrefabInternal: {fileID: 895467901}
--- !u!1001 &1074092683
Prefab:
  m_ObjectHideFlags: 0
  serializedVersion: 2
  m_Modification:
    m_TransformParent: {fileID: 1694668813}
    m_Modifications:
    - target: {fileID: 443356, guid: 8a733dc1f0f4d594bbc5436424d2eaf2, type: 2}
      propertyPath: m_LocalPosition.x
      value: 0
      objectReference: {fileID: 0}
    - target: {fileID: 443356, guid: 8a733dc1f0f4d594bbc5436424d2eaf2, type: 2}
      propertyPath: m_LocalPosition.y
      value: 0
      objectReference: {fileID: 0}
    - target: {fileID: 443356, guid: 8a733dc1f0f4d594bbc5436424d2eaf2, type: 2}
      propertyPath: m_LocalPosition.z
      value: 2.05
      objectReference: {fileID: 0}
    - target: {fileID: 443356, guid: 8a733dc1f0f4d594bbc5436424d2eaf2, type: 2}
      propertyPath: m_LocalRotation.x
      value: -0.4144427
      objectReference: {fileID: 0}
    - target: {fileID: 443356, guid: 8a733dc1f0f4d594bbc5436424d2eaf2, type: 2}
      propertyPath: m_LocalRotation.y
      value: -0.41444266
      objectReference: {fileID: 0}
    - target: {fileID: 443356, guid: 8a733dc1f0f4d594bbc5436424d2eaf2, type: 2}
      propertyPath: m_LocalRotation.z
      value: 0.57291996
      objectReference: {fileID: 0}
    - target: {fileID: 443356, guid: 8a733dc1f0f4d594bbc5436424d2eaf2, type: 2}
      propertyPath: m_LocalRotation.w
      value: 0.57291996
      objectReference: {fileID: 0}
    - target: {fileID: 443356, guid: 8a733dc1f0f4d594bbc5436424d2eaf2, type: 2}
      propertyPath: m_RootOrder
      value: 4
      objectReference: {fileID: 0}
    m_RemovedComponents: []
  m_ParentPrefab: {fileID: 100100000, guid: 8a733dc1f0f4d594bbc5436424d2eaf2, type: 2}
  m_IsPrefabParent: 0
--- !u!4 &1074092684 stripped
Transform:
  m_PrefabParentObject: {fileID: 443356, guid: 8a733dc1f0f4d594bbc5436424d2eaf2, type: 2}
  m_PrefabInternal: {fileID: 1074092683}
--- !u!1001 &1123903977
Prefab:
  m_ObjectHideFlags: 0
  serializedVersion: 2
  m_Modification:
    m_TransformParent: {fileID: 1694668813}
    m_Modifications:
    - target: {fileID: 461932, guid: dbc20bb5be6e91a41a600b30763b376a, type: 2}
      propertyPath: m_LocalPosition.x
      value: 0
      objectReference: {fileID: 0}
    - target: {fileID: 461932, guid: dbc20bb5be6e91a41a600b30763b376a, type: 2}
      propertyPath: m_LocalPosition.y
      value: 0
      objectReference: {fileID: 0}
    - target: {fileID: 461932, guid: dbc20bb5be6e91a41a600b30763b376a, type: 2}
      propertyPath: m_LocalPosition.z
      value: 0.96
      objectReference: {fileID: 0}
    - target: {fileID: 461932, guid: dbc20bb5be6e91a41a600b30763b376a, type: 2}
      propertyPath: m_LocalRotation.x
      value: -0.7071068
      objectReference: {fileID: 0}
    - target: {fileID: 461932, guid: dbc20bb5be6e91a41a600b30763b376a, type: 2}
      propertyPath: m_LocalRotation.y
      value: 0
      objectReference: {fileID: 0}
    - target: {fileID: 461932, guid: dbc20bb5be6e91a41a600b30763b376a, type: 2}
      propertyPath: m_LocalRotation.z
      value: -0
      objectReference: {fileID: 0}
    - target: {fileID: 461932, guid: dbc20bb5be6e91a41a600b30763b376a, type: 2}
      propertyPath: m_LocalRotation.w
      value: 0.7071067
      objectReference: {fileID: 0}
    - target: {fileID: 461932, guid: dbc20bb5be6e91a41a600b30763b376a, type: 2}
      propertyPath: m_RootOrder
      value: 0
      objectReference: {fileID: 0}
    m_RemovedComponents: []
  m_ParentPrefab: {fileID: 100100000, guid: dbc20bb5be6e91a41a600b30763b376a, type: 2}
  m_IsPrefabParent: 0
--- !u!4 &1123903978 stripped
Transform:
  m_PrefabParentObject: {fileID: 461932, guid: dbc20bb5be6e91a41a600b30763b376a, type: 2}
  m_PrefabInternal: {fileID: 1123903977}
--- !u!1 &1405799098
GameObject:
  m_ObjectHideFlags: 0
  m_PrefabParentObject: {fileID: 0}
  m_PrefabInternal: {fileID: 0}
  serializedVersion: 5
  m_Component:
  - component: {fileID: 1405799103}
  - component: {fileID: 1405799102}
  - component: {fileID: 1405799101}
  - component: {fileID: 1405799100}
  - component: {fileID: 1405799099}
  m_Layer: 0
  m_Name: Main Camera
  m_TagString: MainCamera
  m_Icon: {fileID: 0}
  m_NavMeshLayer: 0
  m_StaticEditorFlags: 0
  m_IsActive: 1
--- !u!81 &1405799099
AudioListener:
  m_ObjectHideFlags: 0
  m_PrefabParentObject: {fileID: 0}
  m_PrefabInternal: {fileID: 0}
  m_GameObject: {fileID: 1405799098}
  m_Enabled: 1
--- !u!124 &1405799100
Behaviour:
  m_ObjectHideFlags: 0
  m_PrefabParentObject: {fileID: 0}
  m_PrefabInternal: {fileID: 0}
  m_GameObject: {fileID: 1405799098}
  m_Enabled: 1
--- !u!92 &1405799101
Behaviour:
  m_ObjectHideFlags: 0
  m_PrefabParentObject: {fileID: 0}
  m_PrefabInternal: {fileID: 0}
  m_GameObject: {fileID: 1405799098}
  m_Enabled: 1
--- !u!20 &1405799102
Camera:
  m_ObjectHideFlags: 0
  m_PrefabParentObject: {fileID: 0}
  m_PrefabInternal: {fileID: 0}
  m_GameObject: {fileID: 1405799098}
  m_Enabled: 1
  serializedVersion: 2
  m_ClearFlags: 1
  m_BackGroundColor: {r: 0.19215687, g: 0.3019608, b: 0.4745098, a: 0.019607844}
  m_NormalizedViewPortRect:
    serializedVersion: 2
    x: 0
    y: 0
    width: 1
    height: 1
  near clip plane: 0.3
  far clip plane: 1000
  field of view: 60
  orthographic: 0
  orthographic size: 5
  m_Depth: -1
  m_CullingMask:
    serializedVersion: 2
    m_Bits: 4294967295
  m_RenderingPath: -1
  m_TargetTexture: {fileID: 0}
  m_TargetDisplay: 0
  m_TargetEye: 3
  m_HDR: 0
  m_AllowMSAA: 1
  m_AllowDynamicResolution: 0
  m_ForceIntoRT: 0
  m_OcclusionCulling: 1
  m_StereoConvergence: 10
  m_StereoSeparation: 0.022
--- !u!4 &1405799103
Transform:
  m_ObjectHideFlags: 0
  m_PrefabParentObject: {fileID: 0}
  m_PrefabInternal: {fileID: 0}
  m_GameObject: {fileID: 1405799098}
  m_LocalRotation: {x: 0, y: 0, z: 0, w: 1}
  m_LocalPosition: {x: 0, y: 1, z: -10}
  m_LocalScale: {x: 1, y: 1, z: 1}
  m_Children: []
  m_Father: {fileID: 0}
  m_RootOrder: 0
  m_LocalEulerAnglesHint: {x: 0, y: 0, z: 0}
--- !u!1001 &1501101100
Prefab:
  m_ObjectHideFlags: 0
  serializedVersion: 2
  m_Modification:
    m_TransformParent: {fileID: 0}
    m_Modifications:
    - target: {fileID: 492852, guid: 297cb80c39bd7ae4daf80ac8b8c0a305, type: 2}
      propertyPath: m_LocalPosition.x
      value: 0
      objectReference: {fileID: 0}
    - target: {fileID: 492852, guid: 297cb80c39bd7ae4daf80ac8b8c0a305, type: 2}
      propertyPath: m_LocalPosition.y
      value: 0
      objectReference: {fileID: 0}
    - target: {fileID: 492852, guid: 297cb80c39bd7ae4daf80ac8b8c0a305, type: 2}
      propertyPath: m_LocalPosition.z
      value: 3.31
      objectReference: {fileID: 0}
    - target: {fileID: 492852, guid: 297cb80c39bd7ae4daf80ac8b8c0a305, type: 2}
      propertyPath: m_LocalRotation.x
      value: 0
      objectReference: {fileID: 0}
    - target: {fileID: 492852, guid: 297cb80c39bd7ae4daf80ac8b8c0a305, type: 2}
      propertyPath: m_LocalRotation.y
      value: 0
      objectReference: {fileID: 0}
    - target: {fileID: 492852, guid: 297cb80c39bd7ae4daf80ac8b8c0a305, type: 2}
      propertyPath: m_LocalRotation.z
      value: 0
      objectReference: {fileID: 0}
    - target: {fileID: 492852, guid: 297cb80c39bd7ae4daf80ac8b8c0a305, type: 2}
      propertyPath: m_LocalRotation.w
      value: 1
      objectReference: {fileID: 0}
    - target: {fileID: 492852, guid: 297cb80c39bd7ae4daf80ac8b8c0a305, type: 2}
      propertyPath: m_RootOrder
      value: 2
      objectReference: {fileID: 0}
    m_RemovedComponents: []
  m_ParentPrefab: {fileID: 100100000, guid: 297cb80c39bd7ae4daf80ac8b8c0a305, type: 2}
  m_IsPrefabParent: 0
--- !u!1001 &1514137385
Prefab:
  m_ObjectHideFlags: 0
  serializedVersion: 2
  m_Modification:
    m_TransformParent: {fileID: 1694668813}
    m_Modifications:
    - target: {fileID: 410910, guid: 2e484bbbc43b43e4081262f200048c97, type: 2}
      propertyPath: m_LocalPosition.x
      value: 4.8
      objectReference: {fileID: 0}
    - target: {fileID: 410910, guid: 2e484bbbc43b43e4081262f200048c97, type: 2}
      propertyPath: m_LocalPosition.y
      value: 0
      objectReference: {fileID: 0}
    - target: {fileID: 410910, guid: 2e484bbbc43b43e4081262f200048c97, type: 2}
      propertyPath: m_LocalPosition.z
      value: -3.39
      objectReference: {fileID: 0}
    - target: {fileID: 410910, guid: 2e484bbbc43b43e4081262f200048c97, type: 2}
      propertyPath: m_LocalRotation.x
      value: -0.7071068
      objectReference: {fileID: 0}
    - target: {fileID: 410910, guid: 2e484bbbc43b43e4081262f200048c97, type: 2}
      propertyPath: m_LocalRotation.y
      value: -0
      objectReference: {fileID: 0}
    - target: {fileID: 410910, guid: 2e484bbbc43b43e4081262f200048c97, type: 2}
      propertyPath: m_LocalRotation.z
      value: -0
      objectReference: {fileID: 0}
    - target: {fileID: 410910, guid: 2e484bbbc43b43e4081262f200048c97, type: 2}
      propertyPath: m_LocalRotation.w
      value: 0.7071067
      objectReference: {fileID: 0}
    - target: {fileID: 410910, guid: 2e484bbbc43b43e4081262f200048c97, type: 2}
      propertyPath: m_RootOrder
      value: 16
      objectReference: {fileID: 0}
    - target: {fileID: 410910, guid: 2e484bbbc43b43e4081262f200048c97, type: 2}
      propertyPath: m_LocalScale.y
      value: 204.50981
      objectReference: {fileID: 0}
    - target: {fileID: 410910, guid: 2e484bbbc43b43e4081262f200048c97, type: 2}
      propertyPath: m_LocalScale.z
      value: 404.01602
      objectReference: {fileID: 0}
    - target: {fileID: 122612, guid: 2e484bbbc43b43e4081262f200048c97, type: 2}
      propertyPath: m_Name
      value: springboard (1)
      objectReference: {fileID: 0}
    - target: {fileID: 410910, guid: 2e484bbbc43b43e4081262f200048c97, type: 2}
      propertyPath: m_LocalScale.x
      value: 246.22272
      objectReference: {fileID: 0}
    m_RemovedComponents: []
  m_ParentPrefab: {fileID: 100100000, guid: 2e484bbbc43b43e4081262f200048c97, type: 2}
  m_IsPrefabParent: 0
--- !u!1001 &1656152614
Prefab:
  m_ObjectHideFlags: 0
  serializedVersion: 2
  m_Modification:
    m_TransformParent: {fileID: 1694668813}
    m_Modifications:
    - target: {fileID: 457608, guid: 6b322db5faac47045ba3ab32058325af, type: 2}
      propertyPath: m_LocalPosition.x
      value: 0
      objectReference: {fileID: 0}
    - target: {fileID: 457608, guid: 6b322db5faac47045ba3ab32058325af, type: 2}
      propertyPath: m_LocalPosition.y
      value: 0.000000029802322
      objectReference: {fileID: 0}
    - target: {fileID: 457608, guid: 6b322db5faac47045ba3ab32058325af, type: 2}
      propertyPath: m_LocalPosition.z
      value: -0.000000029802322
      objectReference: {fileID: 0}
    - target: {fileID: 457608, guid: 6b322db5faac47045ba3ab32058325af, type: 2}
      propertyPath: m_LocalRotation.x
      value: -0.7071068
      objectReference: {fileID: 0}
    - target: {fileID: 457608, guid: 6b322db5faac47045ba3ab32058325af, type: 2}
      propertyPath: m_LocalRotation.y
      value: 0
      objectReference: {fileID: 0}
    - target: {fileID: 457608, guid: 6b322db5faac47045ba3ab32058325af, type: 2}
      propertyPath: m_LocalRotation.z
      value: -0
      objectReference: {fileID: 0}
    - target: {fileID: 457608, guid: 6b322db5faac47045ba3ab32058325af, type: 2}
      propertyPath: m_LocalRotation.w
      value: 0.7071067
      objectReference: {fileID: 0}
    - target: {fileID: 457608, guid: 6b322db5faac47045ba3ab32058325af, type: 2}
      propertyPath: m_RootOrder
      value: 8
      objectReference: {fileID: 0}
    m_RemovedComponents: []
  m_ParentPrefab: {fileID: 100100000, guid: 6b322db5faac47045ba3ab32058325af, type: 2}
  m_IsPrefabParent: 0
--- !u!4 &1656152615 stripped
Transform:
  m_PrefabParentObject: {fileID: 457608, guid: 6b322db5faac47045ba3ab32058325af, type: 2}
  m_PrefabInternal: {fileID: 1656152614}
--- !u!1 &1694668811
GameObject:
  m_ObjectHideFlags: 0
  m_PrefabParentObject: {fileID: 100082, guid: 4359e0f228110744096611de95e0343c, type: 3}
  m_PrefabInternal: {fileID: 0}
  serializedVersion: 5
  m_Component:
  - component: {fileID: 1694668813}
  - component: {fileID: 1694668812}
  m_Layer: 0
  m_Name: ski
  m_TagString: Untagged
  m_Icon: {fileID: 0}
  m_NavMeshLayer: 0
  m_StaticEditorFlags: 0
  m_IsActive: 1
--- !u!95 &1694668812
Animator:
  serializedVersion: 3
  m_ObjectHideFlags: 0
  m_PrefabParentObject: {fileID: 9500000, guid: 4359e0f228110744096611de95e0343c,
    type: 3}
  m_PrefabInternal: {fileID: 0}
  m_GameObject: {fileID: 1694668811}
  m_Enabled: 1
  m_Avatar: {fileID: 9000000, guid: 4359e0f228110744096611de95e0343c, type: 3}
  m_Controller: {fileID: 0}
  m_CullingMode: 0
  m_UpdateMode: 0
  m_ApplyRootMotion: 0
  m_LinearVelocityBlending: 0
  m_WarningMessage: 
  m_HasTransformHierarchy: 1
  m_AllowConstantClipSamplingOptimization: 1
--- !u!4 &1694668813
Transform:
  m_ObjectHideFlags: 0
  m_PrefabParentObject: {fileID: 400082, guid: 4359e0f228110744096611de95e0343c, type: 3}
  m_PrefabInternal: {fileID: 0}
  m_GameObject: {fileID: 1694668811}
  m_LocalRotation: {x: 0, y: 0, z: 0, w: 1}
  m_LocalPosition: {x: 0, y: 0, z: 0}
  m_LocalScale: {x: 1, y: 1, z: 1}
  m_Children:
  - {fileID: 1123903978}
  - {fileID: 684109689}
  - {fileID: 74650499}
  - {fileID: 626016541}
  - {fileID: 1074092684}
  - {fileID: 360132050}
  - {fileID: 731993185}
  - {fileID: 690590501}
  - {fileID: 1656152615}
  - {fileID: 1846156370}
  - {fileID: 2056196282}
  - {fileID: 895467902}
  - {fileID: 1945103350}
  - {fileID: 851761852}
  - {fileID: 412807336}
  - {fileID: 2041047592}
  - {fileID: 2018003008}
  m_Father: {fileID: 0}
  m_RootOrder: 1
  m_LocalEulerAnglesHint: {x: 0, y: 0, z: 0}
--- !u!1001 &1846156369
Prefab:
  m_ObjectHideFlags: 0
  serializedVersion: 2
  m_Modification:
    m_TransformParent: {fileID: 1694668813}
    m_Modifications:
    - target: {fileID: 4407382246648544, guid: c04bc69277189fd4f8d2389c1ae03a6d, type: 2}
      propertyPath: m_LocalPosition.x
      value: 0
      objectReference: {fileID: 0}
    - target: {fileID: 4407382246648544, guid: c04bc69277189fd4f8d2389c1ae03a6d, type: 2}
      propertyPath: m_LocalPosition.y
      value: 0
      objectReference: {fileID: 0}
    - target: {fileID: 4407382246648544, guid: c04bc69277189fd4f8d2389c1ae03a6d, type: 2}
      propertyPath: m_LocalPosition.z
      value: 0
      objectReference: {fileID: 0}
    - target: {fileID: 4407382246648544, guid: c04bc69277189fd4f8d2389c1ae03a6d, type: 2}
      propertyPath: m_LocalRotation.x
      value: -0.7071068
      objectReference: {fileID: 0}
    - target: {fileID: 4407382246648544, guid: c04bc69277189fd4f8d2389c1ae03a6d, type: 2}
      propertyPath: m_LocalRotation.y
      value: 0
      objectReference: {fileID: 0}
    - target: {fileID: 4407382246648544, guid: c04bc69277189fd4f8d2389c1ae03a6d, type: 2}
      propertyPath: m_LocalRotation.z
      value: -0
      objectReference: {fileID: 0}
    - target: {fileID: 4407382246648544, guid: c04bc69277189fd4f8d2389c1ae03a6d, type: 2}
      propertyPath: m_LocalRotation.w
      value: 0.7071067
      objectReference: {fileID: 0}
    - target: {fileID: 4407382246648544, guid: c04bc69277189fd4f8d2389c1ae03a6d, type: 2}
      propertyPath: m_RootOrder
      value: 9
      objectReference: {fileID: 0}
    m_RemovedComponents: []
  m_ParentPrefab: {fileID: 100100000, guid: c04bc69277189fd4f8d2389c1ae03a6d, type: 2}
  m_IsPrefabParent: 0
--- !u!4 &1846156370 stripped
Transform:
  m_PrefabParentObject: {fileID: 4407382246648544, guid: c04bc69277189fd4f8d2389c1ae03a6d,
    type: 2}
  m_PrefabInternal: {fileID: 1846156369}
--- !u!1001 &1945103349
Prefab:
  m_ObjectHideFlags: 0
  serializedVersion: 2
  m_Modification:
    m_TransformParent: {fileID: 1694668813}
    m_Modifications:
    - target: {fileID: 469500, guid: f45571cbd40aea74cb9206a168799b7f, type: 2}
      propertyPath: m_LocalPosition.x
      value: 1.6
      objectReference: {fileID: 0}
    - target: {fileID: 469500, guid: f45571cbd40aea74cb9206a168799b7f, type: 2}
      propertyPath: m_LocalPosition.y
      value: 0
      objectReference: {fileID: 0}
    - target: {fileID: 469500, guid: f45571cbd40aea74cb9206a168799b7f, type: 2}
      propertyPath: m_LocalPosition.z
      value: 0
      objectReference: {fileID: 0}
    - target: {fileID: 469500, guid: f45571cbd40aea74cb9206a168799b7f, type: 2}
      propertyPath: m_LocalRotation.x
      value: -0.7071068
      objectReference: {fileID: 0}
    - target: {fileID: 469500, guid: f45571cbd40aea74cb9206a168799b7f, type: 2}
      propertyPath: m_LocalRotation.y
      value: 0
      objectReference: {fileID: 0}
    - target: {fileID: 469500, guid: f45571cbd40aea74cb9206a168799b7f, type: 2}
      propertyPath: m_LocalRotation.z
      value: 0
      objectReference: {fileID: 0}
    - target: {fileID: 469500, guid: f45571cbd40aea74cb9206a168799b7f, type: 2}
      propertyPath: m_LocalRotation.w
      value: 0.7071067
      objectReference: {fileID: 0}
    - target: {fileID: 469500, guid: f45571cbd40aea74cb9206a168799b7f, type: 2}
      propertyPath: m_RootOrder
      value: 12
      objectReference: {fileID: 0}
    - target: {fileID: 469500, guid: f45571cbd40aea74cb9206a168799b7f, type: 2}
      propertyPath: m_LocalScale.y
      value: 100
      objectReference: {fileID: 0}
    - target: {fileID: 469500, guid: f45571cbd40aea74cb9206a168799b7f, type: 2}
      propertyPath: m_LocalScale.z
      value: 100
      objectReference: {fileID: 0}
    - target: {fileID: 187700, guid: f45571cbd40aea74cb9206a168799b7f, type: 2}
      propertyPath: m_Name
      value: way_1 (3)
      objectReference: {fileID: 0}
    m_RemovedComponents: []
  m_ParentPrefab: {fileID: 100100000, guid: f45571cbd40aea74cb9206a168799b7f, type: 2}
  m_IsPrefabParent: 0
--- !u!4 &1945103350 stripped
Transform:
  m_PrefabParentObject: {fileID: 469500, guid: f45571cbd40aea74cb9206a168799b7f, type: 2}
  m_PrefabInternal: {fileID: 1945103349}
--- !u!4 &2018003008 stripped
Transform:
  m_PrefabParentObject: {fileID: 410910, guid: 2e484bbbc43b43e4081262f200048c97, type: 2}
  m_PrefabInternal: {fileID: 1514137385}
--- !u!1001 &2041047591
Prefab:
  m_ObjectHideFlags: 0
  serializedVersion: 2
  m_Modification:
    m_TransformParent: {fileID: 1694668813}
    m_Modifications:
    - target: {fileID: 4542056097273946, guid: 3abac45ed9e000d4991d5755e1145fbc, type: 2}
      propertyPath: m_LocalPosition.x
      value: 0
      objectReference: {fileID: 0}
    - target: {fileID: 4542056097273946, guid: 3abac45ed9e000d4991d5755e1145fbc, type: 2}
      propertyPath: m_LocalPosition.y
      value: 0
      objectReference: {fileID: 0}
    - target: {fileID: 4542056097273946, guid: 3abac45ed9e000d4991d5755e1145fbc, type: 2}
      propertyPath: m_LocalPosition.z
      value: -0
      objectReference: {fileID: 0}
    - target: {fileID: 4542056097273946, guid: 3abac45ed9e000d4991d5755e1145fbc, type: 2}
      propertyPath: m_LocalRotation.x
      value: 0.00000011518241
      objectReference: {fileID: 0}
    - target: {fileID: 4542056097273946, guid: 3abac45ed9e000d4991d5755e1145fbc, type: 2}
      propertyPath: m_LocalRotation.y
      value: 0.70722896
      objectReference: {fileID: 0}
    - target: {fileID: 4542056097273946, guid: 3abac45ed9e000d4991d5755e1145fbc, type: 2}
      propertyPath: m_LocalRotation.z
      value: 0.7069846
      objectReference: {fileID: 0}
    - target: {fileID: 4542056097273946, guid: 3abac45ed9e000d4991d5755e1145fbc, type: 2}
      propertyPath: m_LocalRotation.w
      value: -0.00000011522223
      objectReference: {fileID: 0}
    - target: {fileID: 4542056097273946, guid: 3abac45ed9e000d4991d5755e1145fbc, type: 2}
      propertyPath: m_RootOrder
      value: 15
      objectReference: {fileID: 0}
    m_RemovedComponents: []
  m_ParentPrefab: {fileID: 100100000, guid: 3abac45ed9e000d4991d5755e1145fbc, type: 2}
  m_IsPrefabParent: 0
--- !u!4 &2041047592 stripped
Transform:
  m_PrefabParentObject: {fileID: 4542056097273946, guid: 3abac45ed9e000d4991d5755e1145fbc,
    type: 2}
  m_PrefabInternal: {fileID: 2041047591}
--- !u!1001 &2056196281
Prefab:
  m_ObjectHideFlags: 0
  serializedVersion: 2
  m_Modification:
    m_TransformParent: {fileID: 1694668813}
    m_Modifications:
    - target: {fileID: 469500, guid: f45571cbd40aea74cb9206a168799b7f, type: 2}
      propertyPath: m_LocalPosition.x
      value: -1.6
      objectReference: {fileID: 0}
    - target: {fileID: 469500, guid: f45571cbd40aea74cb9206a168799b7f, type: 2}
      propertyPath: m_LocalPosition.y
      value: 0
      objectReference: {fileID: 0}
    - target: {fileID: 469500, guid: f45571cbd40aea74cb9206a168799b7f, type: 2}
      propertyPath: m_LocalPosition.z
      value: 0
      objectReference: {fileID: 0}
    - target: {fileID: 469500, guid: f45571cbd40aea74cb9206a168799b7f, type: 2}
      propertyPath: m_LocalRotation.x
      value: -0.7071068
      objectReference: {fileID: 0}
    - target: {fileID: 469500, guid: f45571cbd40aea74cb9206a168799b7f, type: 2}
      propertyPath: m_LocalRotation.y
      value: 0
      objectReference: {fileID: 0}
    - target: {fileID: 469500, guid: f45571cbd40aea74cb9206a168799b7f, type: 2}
      propertyPath: m_LocalRotation.z
      value: 0
      objectReference: {fileID: 0}
    - target: {fileID: 469500, guid: f45571cbd40aea74cb9206a168799b7f, type: 2}
      propertyPath: m_LocalRotation.w
      value: 0.7071067
      objectReference: {fileID: 0}
    - target: {fileID: 469500, guid: f45571cbd40aea74cb9206a168799b7f, type: 2}
      propertyPath: m_RootOrder
      value: 10
      objectReference: {fileID: 0}
    - target: {fileID: 469500, guid: f45571cbd40aea74cb9206a168799b7f, type: 2}
      propertyPath: m_LocalScale.y
      value: 100
      objectReference: {fileID: 0}
    - target: {fileID: 469500, guid: f45571cbd40aea74cb9206a168799b7f, type: 2}
      propertyPath: m_LocalScale.z
      value: 100
      objectReference: {fileID: 0}
    - target: {fileID: 187700, guid: f45571cbd40aea74cb9206a168799b7f, type: 2}
      propertyPath: m_Name
      value: way_1 (1)
      objectReference: {fileID: 0}
    m_RemovedComponents: []
  m_ParentPrefab: {fileID: 100100000, guid: f45571cbd40aea74cb9206a168799b7f, type: 2}
  m_IsPrefabParent: 0
--- !u!4 &2056196282 stripped
Transform:
  m_PrefabParentObject: {fileID: 469500, guid: f45571cbd40aea74cb9206a168799b7f, type: 2}
  m_PrefabInternal: {fileID: 2056196281}
--- !u!1001 &2106134046
Prefab:
  m_ObjectHideFlags: 0
  serializedVersion: 2
  m_Modification:
    m_TransformParent: {fileID: 0}
    m_Modifications:
    - target: {fileID: 410504, guid: 771bbda8344550e4b9fa56b649e228f8, type: 2}
      propertyPath: m_LocalPosition.x
      value: 0
      objectReference: {fileID: 0}
    - target: {fileID: 410504, guid: 771bbda8344550e4b9fa56b649e228f8, type: 2}
      propertyPath: m_LocalPosition.y
      value: 0
      objectReference: {fileID: 0}
    - target: {fileID: 410504, guid: 771bbda8344550e4b9fa56b649e228f8, type: 2}
      propertyPath: m_LocalPosition.z
      value: -0.82
      objectReference: {fileID: 0}
    - target: {fileID: 410504, guid: 771bbda8344550e4b9fa56b649e228f8, type: 2}
      propertyPath: m_LocalRotation.x
      value: 0
      objectReference: {fileID: 0}
    - target: {fileID: 410504, guid: 771bbda8344550e4b9fa56b649e228f8, type: 2}
      propertyPath: m_LocalRotation.y
      value: 0
      objectReference: {fileID: 0}
    - target: {fileID: 410504, guid: 771bbda8344550e4b9fa56b649e228f8, type: 2}
      propertyPath: m_LocalRotation.z
      value: 0
      objectReference: {fileID: 0}
    - target: {fileID: 410504, guid: 771bbda8344550e4b9fa56b649e228f8, type: 2}
      propertyPath: m_LocalRotation.w
      value: 1
      objectReference: {fileID: 0}
    - target: {fileID: 410504, guid: 771bbda8344550e4b9fa56b649e228f8, type: 2}
      propertyPath: m_RootOrder
      value: 3
      objectReference: {fileID: 0}
    m_RemovedComponents: []
  m_ParentPrefab: {fileID: 100100000, guid: 771bbda8344550e4b9fa56b649e228f8, type: 2}
  m_IsPrefabParent: 0
